<svg width="19" height="19" viewBox="0 0 19 19" fill="none" xmlns="http://www.w3.org/2000/svg">
<path fill-rule="evenodd" clip-rule="evenodd" d="M18.997 1.25533e-06L11.5026 18.7403L7.94073 10.9759L0.000578208 7.50645L18.997 1.25533e-06ZM5.52908 7.60494L9.53299 9.35443L11.3688 13.3563L15.1966 3.78481L5.52908 7.60494Z" fill="white"/>
</svg>
